841256 554175 525
432632 655847 509
744658 267223 509
161087 325646 443
123269 440237 449
216345 294701 443
660456 625980 509
992318 262925 525
121495 255396 443
66863 929719 525
462481 498965 426
528703 116142 470
297785 750860 509
346204 641010 509
718971 75682 509
636691 91051 509
226499 278019 443
99486 825752 509
872430 194683 525
781006 142115 509
315802 357048 441
465508 467995 413
947737 628925 525
411501 526497 470
26624 916766 525
587514 646988 509
807067 784944 468
307310 672985 509
49742 365258 443
880223 472373 525
288048 233583 407
69398 367453 443
939417 980127 507
784504 686295 504
526896 665024 509
352285 525977 470
971621 426073 525
507956 332882 449
388239 750131 509
427640 214744 449
633864 554170 509
476827 629826 509
656979 661028 398
652350 315474 509
774678 172470 509
451777 205872 449
746945 160640 509
474042 850745 525
507961 429166 444
481662 729296 509
690858 927032 525
141006 285758 443
390220 906721 525
576814 771017 509
36829 426035 449
729088 399591 509
758048 758547 362
901468 217636 525
932265 58567 525
444800 412501 418
585177 11269 470
705167 691757 504
971475 595734 525
705150 345154 509
881190 252429 525
737866 687687 504
142708 388006 443
546025 165281 470
940338 694409 525
13319 628930 509
750631 534346 509
457433 314988 449
780106 929340 525
481149 312434 449
519035 19580 470
362110 951982 525
284386 345555 389
571859 594370 434
807818 600518 509
345121 698578 509
350042 865500 525
303169 319899 384
619689 159049 470
376634 937653 525
650231 906769 525
259761 998099 525
466755 319710 449
73037 662540 509
434706 928098 525
19350 566755 470
625079 162017 470
86693 619482 470
628431 748480 504
747382 150550 509
824548 272924 509
407481 924406 525
292360 830228 509
494639 409288 449
595307 68793 470
243998 778052 509
81597 852405 525
1522 233799 443
537408 724895 509
228966 880621 525
922255 618182 525
56322 801507 509
507520 984675 525
699947 650956 442
382777 762074 509
882232 290130 525
5729 676575 509
771071 480045 509
920481 749754 525
353409 19420 443
819488 462274 509
850518 249022 525
345931 936136 525
803115 148160 509
372109 392504 436
677651 105893 509
85988 814849 509
753453 945072 525
758464 250301 509
189217 994873 525
972889 547681 525
986596 804668 525
418114 294809 449
829595 987534 525
330670 849426 525
200789 311738 443
262688 360189 441
842709 504707 525
881958 124892 525
574360 630818 509
694560 796587 504
899767 746729 525
782393 954589 525
368907 421767 449
344814 23283 443
13558 143713 375
415355 863693 525
929366 69805 525
655447 245791 509
22157 284383 443
557739 392879 470
731467 521693 509
377685 780715 509
287760 404123 441
603624 194134 470
251424 957727 525
141883 920676 525
282789 419773 449
545640 949334 525
56458 863396 525
892619 806016 525
884749 349004 525
150335 233495 443
572265 779812 509
879552 914848 476
16350 890137 525
313886 777178 509
701311 203644 509
327753 739960 509
449048 33952 449
440217 529587 470
302056 510368 449
826754 136375 509
120697 769433 509
251917 784755 509
357864 3807 443
96505 531820 470
865225 565070 525
837038 427054 509
773655 84391 509
901364 459247 525
772084 555351 509
204273 214586 373
113615 997428 525
356094 499528 449
938423 524183 525
289205 311172 371
96265 352576 443
540799 148830 470
639143 795973 504
346004 107280 443
816390 835506 450
725280 531018 509
903101 23657 525
665132 540421 509
315487 625360 470
716543 682505 504
655630 687246 442
469561 713019 509
710382 198860 509
376429 395309 436
897269 925697 476
975808 613354 525
667064 399606 509
456778 411269 418
511545 835626 509
424003 423626 418
571767 869207 525
265566 409693 441
25055 10748 282
329264 800644 509
292387 626242 470
406199 728837 509
206296 551104 470
310218 307126 371
22233 4156 279
227013 814429 509
339777 98023 443
299110 169424 443
835536 550970 509
766548 137516 509
309038 462985 449
662379 470363 509
469883 10942 449
642750 754249 504
529112 676482 509
106291 510353 449
36324 443690 449
890996 431245 525
74140 966469 525
935659 333928 525
435624 305014 449
103421 251856 443
448457 684675 509
72335 986918 525
68321 672410 509
998686 671889 525
202530 695918 509
488355 867525 525
810211 603514 509
175493 45760 383
7108 440075 449
635217 671936 442
421314 907155 525
977065 85240 525
884951 618590 525
559648 550809 421
500893 66331 449
366234 492883 449
254386 305681 407
310574 951606 525
733719 288692 509
96247 323663 443
378742 391339 436
447926 919389 525
257858 772470 509
